==========================================-------==============
______                       _____  ______                     
|  _  \                     / __  \ |  _  \                    
| | | |  ___    ___   _ __  `' / /' | | | |  ___    ___   _ __ 
| | | | / _ \  / _ \ | '__|   / /   | | | | / _ \  / _ \ | '__|
| |/ / | (_) || (_) || |    ./ /___ | |/ / | (_) || (_) || |   
|___/   \___/  \___/ |_|    \_____/ |___/   \___/  \___/ |_|   
                                                               
==========================================-------================
-----Code Challenge------Sikandar Ali Awan
                                   